4 Practical Day 4 – Practicals
…
── Attaching core tidyverse packages ──────────────────────── tidyverse 2.0.0 ──
✔ dplyr     1.1.4     ✔ readr     2.1.5
✔ forcats   1.0.0     ✔ stringr   1.5.1
✔ ggplot2   3.5.1     ✔ tibble    3.2.1
✔ lubridate 1.9.4     ✔ tidyr     1.3.1
✔ purrr     1.0.2     
── Conflicts ────────────────────────────────────────── tidyverse_conflicts() ──
✖ dplyr::filter() masks stats::filter()
✖ dplyr::lag()    masks stats::lag()
ℹ Use the conflicted package (<http://conflicted.r-lib.org/>) to force all conflicts to become errors

4.0.2 Q1

# A tibble: 336,776 × 19
    year month   day dep_time sched_dep_time dep_delay arr_time sched_arr_time
   <int> <int> <int>    <int>          <int>     <dbl>    <int>          <int>
 1  2013     1     1      517            515         2      830            819
 2  2013     1     1      533            529         4      850            830
 3  2013     1     1      542            540         2      923            850
 4  2013     1     1      544            545        -1     1004           1022
 5  2013     1     1      554            600        -6      812            837
 6  2013     1     1      554            558        -4      740            728
 7  2013     1     1      555            600        -5      913            854
 8  2013     1     1      557            600        -3      709            723
 9  2013     1     1      557            600        -3      838            846
10  2013     1     1      558            600        -2      753            745
# ℹ 336,766 more rows
# ℹ 11 more variables: arr_delay <dbl>, carrier <chr>, flight <int>,
#   tailnum <chr>, origin <chr>, dest <chr>, air_time <dbl>, distance <dbl>,
#   hour <dbl>, minute <dbl>, time_hour <dttm>
…
[1] 10.52391

4.0.7 Q6

#Identify routes that more than one airline flies
multi_air_route<-flights |> group_by(origin,dest) |> 
  summarise(uniqcarriers = n_distinct(carrier))|> 
  filter(uniqcarriers > 1)

`summarise()` has grouped output by 'origin'. You can override using the
`.groups` argument.

multi_air_route

# A tibble: 128 × 3
# Groups:   origin [3]
   origin dest  uniqcarriers
   <chr>  <chr>        <int>
 1 EWR    ATL              4
 2 EWR    AUS              2
 3 EWR    BDL              2
 4 EWR    BNA              2
 5 EWR    BOS              3
 6 EWR    BWI              2
 7 EWR    CHS              2
 8 EWR    CLE              2
 9 EWR    CLT              3
10 EWR    CVG              2
# ℹ 118 more rows

#For each such route, calculate the average arrival delay for each airline (exclude NAs). Find the names of these airlines.
avgArr_DelayAirline <- flights |> 
  semi_join(multi_air_route, by = c("origin", "dest")) |>  
  group_by(origin, dest, carrier) |> 
  summarise(avg_arrdelay = mean(arr_delay, na.rm = TRUE)) |>
  left_join(airlines, by = "carrier") |>  
  arrange(origin, dest, avg_arrdelay)  |> relocate(name, .before = avg_arrdelay)

`summarise()` has grouped output by 'origin', 'dest'. You can override using
the `.groups` argument.

avgArr_DelayAirline

# A tibble: 343 × 5
# Groups:   origin, dest [128]
   origin dest  carrier name                     avg_arrdelay
   <chr>  <chr> <chr>   <chr>                           <dbl>
 1 EWR    ATL   9E      Endeavor Air Inc.               -6.25
 2 EWR    ATL   DL      Delta Air Lines Inc.            10.0 
 3 EWR    ATL   UA      United Air Lines Inc.           10.5 
 4 EWR    ATL   EV      ExpressJet Airlines Inc.        19.5 
 5 EWR    AUS   WN      Southwest Airlines Co.         -11.2 
 6 EWR    AUS   UA      United Air Lines Inc.            4.28
 7 EWR    BDL   EV      ExpressJet Airlines Inc.         6.78
 8 EWR    BDL   UA      United Air Lines Inc.           22.6 
 9 EWR    BNA   WN      Southwest Airlines Co.          -2.13
10 EWR    BNA   EV      ExpressJet Airlines Inc.        17.7 
# ℹ 333 more rows
…
`summarise()` has grouped output by 'origin'. You can override using the
`.groups` argument.

best_worst_airlines

# A tibble: 128 × 6
# Groups:   origin [3]
   origin dest  best_airline             best_delay worst_airline    worst_delay
   <chr>  <chr> <chr>                         <dbl> <chr>                  <dbl>
 1 EWR    ATL   Endeavor Air Inc.            -6.25  ExpressJet Airl…       19.5 
 2 EWR    AUS   Southwest Airlines Co.      -11.2   United Air Line…        4.28
 3 EWR    BDL   ExpressJet Airlines Inc.      6.78  United Air Line…       22.6 
 4 EWR    BNA   Southwest Airlines Co.       -2.13  ExpressJet Airl…       17.7 
 5 EWR    BOS   ExpressJet Airlines Inc.     -4.01  JetBlue Airways         6.87
 6 EWR    BWI   Southwest Airlines Co.        5.95  ExpressJet Airl…       20.1 
 7 EWR    CHS   United Air Lines Inc.       -14     ExpressJet Airl…       16.2 
 8 EWR    CLE   ExpressJet Airlines Inc.     -3.71  United Air Line…        5.97
 9 EWR    CLT   US Airways Inc.               0.920 ExpressJet Airl…       20.5 
10 EWR    CVG   Endeavor Air Inc.             1.40  ExpressJet Airl…       21.2 
# ℹ 118 more rows

#Identify the route with the greatest difference between the best and worst performing airlines
great_delay<-best_worst_airlines |>group_by(origin, dest) |>  summarise(delay_diff = worst_delay - best_delay) |> arrange(desc(delay_diff))

`summarise()` has grouped output by 'origin'. You can override using the
`.groups` argument.

great_delay

# A tibble: 128 × 3
# Groups:   origin [3]
   origin dest  delay_diff
   <chr>  <chr>      <dbl>
 1 JFK    ATL        127. 
 2 LGA    XNA        112. 
 3 LGA    ORD        108. 
 4 LGA    MSY        102. 
 5 EWR    STL         96.4
 6 LGA    MSP         95.7
 7 EWR    DTW         67.5
 8 LGA    ATL         56.7
 9 LGA    PBI         53.3
10 LGA    IND         47.2
# ℹ 118 more rows
…
Warning: Not all unique entries displayed for these non-numeric cols: id

#all columns with missing entries, typos and any other inconsistencies in the dataset below
data |> select(gender,height,disease_status,glucose)

# A tibble: 50 × 4
   gender height disease_status glucose
   <chr>   <dbl> <chr>            <dbl>
 1 male     174. diseased            96
 2 male     198. healthy             78
 3 male     174. healthy            101
 4 female   194. healthy            119
 5 female    NA  healthy            103
 6 male     180. healthy             91
 7 female   170. diseased            86
 8 male     157. healthy             NA
 9 male     197. diseased            77
10 female   165. Healthy             80
# ℹ 40 more rows
